202215108TPs de SDD
202215108TPs de SDD
202315108TPs de SDD
202315209TPs de SDD
202315103TPs de SDD
202315104TPs de SDD
202315101TPs de SDD
202315102TPs de SDD
202315202TPs de SDD
202315210TPs de SDD
202015108TPs de SDD
202011108TPs de SDD
202011308TPs de BD 
202012108TPs de C++